-----BEGIN PGP PUBLIC KEY BLOCK-----

mDMEYYutTRYJKwYBBAHaRw8BAQdAsSZUQx51M1k+GBu+HntivdspUAsv4/gmzV7h
ifxdfMy0K1lpbiBNYW53ZWkgPHlpbi1tYW53ZWlAdXNlcnMuYml0YnVja2V0Lm9y
Zz6IlgQTFggAPhYhBOn2NAO9cB2VYzmAEu3nGX/xPi02BQJhi61NAhsDBQkB4TOA
BQsJCAcCBhUKCQgLAgQWAgMBAh4BAheAAAoJEO3nGX/xPi02k/YA/1SjjFyEciQv
BdEz7aB7fLTyGWG1OashBWSjX6gVTGBxAPkBrwCrsA5njYeSjvkf9y+3/vgiOdcu
Ed4W1Fgz28gfCLg4BGGLrU0SCisGAQQBl1UBBQEBB0AI9UEP9Vli3fSTH5PYVtmX
dvzy5/0slVglXuk7xGBtYAMBCAeIfgQYFggAJhYhBOn2NAO9cB2VYzmAEu3nGX/x
Pi02BQJhi61NAhsMBQkB4TOAAAoJEO3nGX/xPi02yYgBANTwEDLTBucVd2iSmskd
umd0xiSCBV50R/ENR0oTSTDzAP9SZ42H7ZaE9bPDvVUYrP6jeHXo4Lw67R6H9OSP
9CpQBA==
=U5ja
-----END PGP PUBLIC KEY BLOCK-----
